<svg id="_33" data-name="33" xmlns="http://www.w3.org/2000/svg" width="57.538" height="57.537" viewBox="0 0 57.538 57.537">
  <g id="Page-1" transform="translate(0 0)">
    <g id="_008---Searching-Passport" data-name="008---Searching-Passport">
      <path id="Shape" d="M4.795,57.537H34.522a4.8,4.8,0,0,0,4.795-4.795V46.394a.959.959,0,1,0-1.918,0v6.348a2.877,2.877,0,0,1-2.877,2.877H4.795a2.877,2.877,0,0,1-2.877-2.877V33.563h27.81a.959.959,0,1,0,0-1.918H1.918V12.466A2.877,2.877,0,0,1,4.795,9.589H34.522A2.877,2.877,0,0,1,37.4,12.466v6.348a.959.959,0,0,0,1.918,0V12.466a4.8,4.8,0,0,0-4.795-4.795H5.93a2.877,2.877,0,0,1,2.7-1.918H38.358a2.877,2.877,0,0,1,2.877,2.877v8.909a.959.959,0,0,0,1.918,0V8.631a4.8,4.8,0,0,0-4.795-4.795H9.766a2.877,2.877,0,0,1,2.7-1.918H42.194a2.877,2.877,0,0,1,2.877,2.877v12.5a.959.959,0,1,0,1.918,0V4.795A4.8,4.8,0,0,0,42.194,0H12.466A4.8,4.8,0,0,0,7.76,3.924,4.8,4.8,0,0,0,3.924,7.76,4.8,4.8,0,0,0,0,12.466V52.742A4.8,4.8,0,0,0,4.795,57.537Z" transform="translate(0 0)" fill="#0067ed"/>
      <path id="Shape-2" data-name="Shape" d="M7.836,37A3.836,3.836,0,0,0,4,40.836V51.384A3.836,3.836,0,0,0,7.836,55.22H18.384a3.836,3.836,0,0,0,3.836-3.836V40.836A3.836,3.836,0,0,0,18.384,37Zm2.877,8.151a2.4,2.4,0,1,1,.7,1.7,2.4,2.4,0,0,1-.7-1.7ZM8.044,53.3a5.264,5.264,0,0,1,10.132,0ZM20.3,40.836V51.384a1.9,1.9,0,0,1-.363,1.114,7.137,7.137,0,0,0-3.8-4.279,4.315,4.315,0,1,0-6.061,0,7.137,7.137,0,0,0-3.8,4.281,1.9,1.9,0,0,1-.363-1.116V40.836a1.918,1.918,0,0,1,1.918-1.918H18.384A1.918,1.918,0,0,1,20.3,40.836Z" transform="translate(-0.164 -1.519)" fill="#0067ed"/>
      <path id="Shape-3" data-name="Shape" d="M34.466,13H22.959a.959.959,0,1,0,0,1.918H34.466a.959.959,0,1,0,0-1.918Z" transform="translate(-0.903 -0.534)" fill="#0067ed"/>
      <path id="Shape-4" data-name="Shape" d="M35.425,18.959A.959.959,0,0,0,34.466,18H22.959a.959.959,0,0,0,0,1.918H34.466A.959.959,0,0,0,35.425,18.959Z" transform="translate(-0.903 -0.739)" fill="#0067ed"/>
      <path id="Shape-5" data-name="Shape" d="M34.965,23.959A.959.959,0,0,0,34.006,23H22.959a.959.959,0,0,0,0,1.918H34.006A.959.959,0,0,0,34.965,23.959Z" transform="translate(-0.903 -0.944)" fill="#0067ed"/>
      <path id="Shape-6" data-name="Shape" d="M31.562,38h-4.6a.959.959,0,0,0,0,1.918h4.6a.959.959,0,1,0,0-1.918Z" transform="translate(-1.067 -1.56)" fill="#0067ed"/>
      <path id="Shape-7" data-name="Shape" d="M34.17,43H26.959a.959.959,0,0,0,0,1.918H34.17a.959.959,0,0,0,0-1.918Z" transform="translate(-1.067 -1.765)" fill="#0067ed"/>
      <path id="Shape-8" data-name="Shape" d="M34.631,48H26.959a.959.959,0,0,0,0,1.918h7.672a.959.959,0,0,0,0-1.918Z" transform="translate(-1.067 -1.97)" fill="#0067ed"/>
      <path id="Shape-9" data-name="Shape" d="M34.631,53H26.959a.959.959,0,1,0,0,1.918h7.672a.959.959,0,1,0,0-1.918Z" transform="translate(-1.067 -2.176)" fill="#0067ed"/>
      <path id="Shape-10" data-name="Shape" d="M22.959,28a.959.959,0,0,0,0,1.918h5.754a.959.959,0,0,0,0-1.918Z" transform="translate(-0.903 -1.149)" fill="#0067ed"/>
      <path id="Shape-11" data-name="Shape" d="M17.466,13H5.959a.959.959,0,1,0,0,1.918H17.466a.959.959,0,1,0,0-1.918Z" transform="translate(-0.205 -0.534)" fill="#0067ed"/>
      <path id="Shape-12" data-name="Shape" d="M17.466,18H5.959a.959.959,0,0,0,0,1.918H17.466a.959.959,0,0,0,0-1.918Z" transform="translate(-0.205 -0.739)" fill="#0067ed"/>
      <path id="Shape-13" data-name="Shape" d="M17.466,28H5.959a.959.959,0,1,0,0,1.918H17.466a.959.959,0,0,0,0-1.918Z" transform="translate(-0.205 -1.149)" fill="#0067ed"/>
      <path id="Shape-14" data-name="Shape" d="M17.466,23H5.959a.959.959,0,0,0,0,1.918H17.466a.959.959,0,0,0,0-1.918Z" transform="translate(-0.205 -0.944)" fill="#0067ed"/>
      <path id="Shape-15" data-name="Shape" d="M46.467,21a12.466,12.466,0,0,0-3.836,24.323v9.058a4.013,4.013,0,1,0,8.026,0V45.192A12.458,12.458,0,0,0,46.467,21ZM48.74,54.381a2.1,2.1,0,0,1-2.091,2.1,2.12,2.12,0,0,1-2.1-2.1V45.77a11.687,11.687,0,0,0,4.191-.055ZM46.467,44.015A10.548,10.548,0,1,1,57.015,33.466,10.548,10.548,0,0,1,46.467,44.015Z" transform="translate(-1.396 -0.862)" fill="#0067ed"/>
      <path id="Shape-16" data-name="Shape" d="M46.631,25A8.64,8.64,0,0,0,38,33.631a.959.959,0,0,0,1.918,0,6.72,6.72,0,0,1,6.713-6.713.959.959,0,1,0,0-1.918Z" transform="translate(-1.56 -1.026)" fill="#0067ed"/>
    </g>
  </g>
</svg>
